Predict fish phenology: advanced
…
We can use the functionality of dplyr to do a data
check that shows the number of observations per year:

crooked_river |>
  mutate(year = lubridate::year(date)) |>
  group_by(year) |>
  tally()
#> # A tibble: 6 × 2
#>    year     n
#>   <dbl> <int>
#> 1  2010    31
#> 2  2011   365
#> 3  2012   366
#> 4  2013   365
#> 5  2014   365
#> # ℹ 1 more row
…
If that sounds a bit complicated, it’s because it is. And this is
where the vectorized approaches really shine.

A quick note about accessing lists. Even if you want to write loops
instead of vectorizing, we do recommend accessing those results via a
vectorized approach. It’s hard to pull out a lot of information from
very large nested loops. You would probably write a custom loop to do
so. However, those results are easily accessed by map, like so:

mapped_results <- OUT |> purrr:::map_df("ef_table")
mapped_results
#> # A tibble: 3,621 × 5
#>   index dates               temperature ef_vals ef_cumsum
#>   <dbl> <dttm>                    <dbl>   <dbl>     <dbl>
#> 1   275 2011-09-01 00:00:00        6.65  0.0148    0.0148
#> 2   276 2011-09-02 00:00:00        6.45  0.0144    0.0292
#> 3   277 2011-09-03 00:00:00        6.46  0.0144    0.0436
#> 4   278 2011-09-04 00:00:00        6.66  0.0148    0.0584
#> 5   279 2011-09-05 00:00:00        6.88  0.0152    0.0736
#> # ℹ 3,616 more rows
…
dev_mods <- map(
  c("hatch", "emerge"),
  model_select,
  author = "Austin et al. 2019",
  species = "bull trout",
  model = "MM"
  )

# we then set up a variable grid for all combinations of our models and dates
# it is very important to make the names of the columns in var_grid to match the
# arguments of the predict_phenology function (e.i., model = and spawn.date =)

var_grid <- expand_grid(model = dev_mods, spawn.date = spawn_dates)
head(var_grid)
#> # A tibble: 6 × 2
#>   model              spawn.date
#>   <list>             <chr>     
#> 1 <spc_tbl_ [1 × 5]> 2011-09-01
#> 2 <spc_tbl_ [1 × 5]> 2011-09-15
#> 3 <spc_tbl_ [1 × 5]> 2011-09-30
#> 4 <spc_tbl_ [1 × 5]> 2012-09-01
#> 5 <spc_tbl_ [1 × 5]> 2012-09-15
#> # ℹ 1 more row
…
# make a vector of what type of phenology we were predicting
# remember we ran hatch over 15 spawn dates then emerge over those same 15
phenology <- c(rep("hatch", 12), rep("emerge", 12))

# make a vector of our spawn dates replicated twice and turn into a timepoint
spawning <- rep(spawn_dates, 2) |>
  ymd(tz = "UTC") # we do this because the crooked_river dataset is ymd_hms

# put them all together in an object
bull_trout_phenology <- tibble(phenology, spawning, days)
head(bull_trout_phenology)
#> # A tibble: 6 × 3
#>   phenology spawning             days
#>   <chr>     <dttm>              <dbl>
#> 1 hatch     2011-09-01 00:00:00    88
#> 2 hatch     2011-09-15 00:00:00   106
#> 3 hatch     2011-09-30 00:00:00   124
#> 4 hatch     2012-09-01 00:00:00    89
#> 5 hatch     2012-09-15 00:00:00   104
#> # ℹ 1 more row
…
Not the best looking plot, but a good example of how to translate
output to a visual representation. For better looking plots, please see
the Advanced
plotting vignette.

Other data types you might want might include the tibble with dates,
temperature, and values and cumulative sums of effective values or the,
alternatively, the developmental period.

# the tibble with all temperature and effective values for each phenological period
all_data <- crooked_predictions |>
  map_df("ef_table")
head(all_data)
#> # A tibble: 6 × 5
#>   index dates               temperature ef_vals ef_cumsum
#>   <dbl> <dttm>                    <dbl>   <dbl>     <dbl>
#> 1   275 2011-09-01 00:00:00        6.65  0.0148    0.0148
#> 2   276 2011-09-02 00:00:00        6.45  0.0144    0.0292
#> 3   277 2011-09-03 00:00:00        6.46  0.0144    0.0436
#> 4   278 2011-09-04 00:00:00        6.66  0.0148    0.0584
#> 5   279 2011-09-05 00:00:00        6.88  0.0152    0.0736
#> # ℹ 1 more row
…
