Predict fish phenology: basic
…
# bring together as a tibble
demo <- tibble(x, demo_ef_vals)
demo
#> # A tibble: 41 × 2
#>       x demo_ef_vals
#>   <dbl>        <dbl>
#> 1  -5            NaN
#> 2  -4.5          NaN
#> 3  -4            NaN
#> 4  -3.5          NaN
#> 5  -3            NaN
#> # ℹ 36 more rows
…
